<svg
   width="64"
   height="64"
   viewBox="0 0 64 64"
   xmlns="http://www.w3.org/2000/svg">

    <path
       id="path1842-3-6"
       style="color:#000000;fill:#000000;fill-rule:evenodd;stroke-width:3.77953;stroke-linejoin:round;-inkscape-stroke:none"
       d="m 1189.0977,87.837891 h 0.023 c 129.1454,0.01285 235.4589,111.306969 235.459,252.615229 -0.038,19.67933 -2.4449,39.16992 -6.6875,58.19141 C 1279.4777,327.47213 1121.7257,288.39561 959.71875,284.7793 983.50543,170.49914 1078.0888,87.924442 1189.0977,87.837891 Z M 497.61328,300.60547 c 83.77788,33.38881 148.78476,101.46075 174.18945,187.07226 6.31957,21.28133 28.24274,33.84435 49.79883,28.53711 65.25396,-16.0673 133.05876,-24.24765 201.2168,-24.25586 393.64854,-1.1e-4 705.15324,264.42103 705.15434,581.77342 -0.1422,155.9374 -75.987,306.0618 -213.75,416.5821 -13.8759,11.1331 -19.1316,29.8607 -13.0743,46.5878 l 60,165.6797 -195.3906,85.0899 -51.3183,-141.7031 c -7.5186,-20.7475 -29.936,-32.0072 -51.0684,-25.6504 -77.0086,23.1819 -158.45,35.1188 -240.53126,35.1953 -58.07803,-0.13 -115.92195,-6.1994 -172.16015,-18.041 -20.27785,-4.2678 -40.60296,7.0471 -47.65821,26.5312 l -44.78515,123.668 -195.39258,-85.0899 43.79102,-120.9082 c 6.6019,-18.2415 -0.28799,-38.6243 -16.60352,-49.1191 -111.88993,-71.9734 -194.12414,-169.542 -237.35742,-279.25 -6.26225,-15.8877 -21.60233,-26.3308 -38.67969,-26.332 H 87.246094 V 967.04883 H 197.97461 c 18.45757,-4.4e-4 34.70547,-12.16886 39.89844,-29.88086 38.31893,-130.74546 130.85577,-247.7376 263.64453,-329.60156 9.89487,-6.0979 16.78567,-16.05907 19.00195,-27.46875 6.30078,-32.4525 9.50788,-65.49461 9.58789,-98.63672 v -0.002 -0.006 -0.006 -0.002 -0.006 -0.006 -0.006 -0.006 -0.006 -0.006 -0.006 -0.006 -0.006 -0.002 -0.006 -0.006 -0.006 -0.006 -0.006 -0.004 c -0.008,-62.2021 -11.24915,-123.44442 -32.49414,-180.75195 z"
       transform="scale(0.033458333)" />
</svg>
